[
    {
        "_id": "series/cogtech/StephanENRH13",
        "type": "Article",
        "title": "Applying Digital Product Memories in Industrial Production.",
        "pages": {
            "start": 283,
            "end": 304
        },
        "year": 2013,
        "booktitle": "SemProM",
        "url": "db/series/cogtech/364237376.html#StephanENRH13",
        "authors": [
            "Peter Stephan",
            "Markus Eich",
            "J?rg Neidig",
            "Martin Rosjat",
            "Roberto Hengst"
        ]
    },
    {
        "_id": "series/cogtech/TanakaIM11",
        "type": "Article",
        "title": "Service Supervision for Runtime Service Management.",
        "pages": {
            "start": 69,
            "end": 83
        },
        "year": 2011,
        "booktitle": "The Language Grid",
        "url": "db/series/cogtech/364221177.html#TanakaIM11",
        "authors": [
            "Masahiro Tanaka",
            "Toru Ishida",
            "Yohei Murakami"
        ]
    },
    {
        "_id": "series/cogtech/KieselN13",
        "type": "Article",
        "title": "The Block Interface: Accessing Digital Product Memories.",
        "pages": {
            "start": 191,
            "end": 203
        },
        "year": 2013,
        "booktitle": "SemProM",
        "url": "db/series/cogtech/364237376.html#KieselN13",
        "authors": [
            "Bruno Kiesel",
            "J?rg Neidig"
        ]
    },
    {
        "_id": "series/cogtech/KrayE11",
        "type": "Article",
        "title": "An ERP-Approach to Study Age Differences in Cognitive Control Processes.",
        "pages": {
            "start": 77,
            "end": 93
        },
        "year": 2011,
        "booktitle": "Resource-Adaptive Cognitive Processes",
        "url": "db/series/cogtech/354089408.html#KrayE11",
        "authors": [
            "Jutta Kray",
            "Ben Eppinger"
        ]
    },
    {
        "_id": "series/cogtech/RackyLR06",
        "type": "Article",
        "title": "The Sense of Vision: Gestures and Real Objects.",
        "pages": {
            "start": 153,
            "end": 165
        },
        "year": 2006,
        "booktitle": "SmartKom",
        "url": "db/series/cogtech/54023732.html#RackyLR06",
        "authors": [
            "Jens Racky",
            "Michael L?tzeler",
            "Hans R?ttger"
        ]
    },
    {
        "_id": "series/cogtech/KuflikKK12",
        "type": "Article",
        "title": "Challenges and Solutions of Ubiquitous User Modeling.",
        "pages": {
            "start": 7,
            "end": 30
        },
        "year": 2012,
        "booktitle": "Ubiquitous Display Environments",
        "url": "db/series/cogtech/364227662.html#KuflikKK12",
        "authors": [
            "Tsvi Kuflik",
            "Judy Kay",
            "Bob Kummerfeld"
        ]
    },
    {
        "_id": "series/cogtech/354089408",
        "type": "Book",
        "editor": "Matthew W. Crocker",
        "editor": "J?rg H. Siekmann",
        "title": "Resource-Adaptive Cognitive Processes",
        "year": 2011,
        "publisher": "Springer",
        "series": "Cognitive Technologies",
        "booktitle": "Resource-Adaptive Cognitive Processes",
        "url": "db/series/cogtech/354089408.html",
        "authors": [],
        "isbn": [
            "978-3-540-89407-0"
        ]
    },
    {
        "_id": "series/cogtech/IshidaMTKS11",
        "type": "Article",
        "title": "Federated Operation Model for Service Grids.",
        "pages": {
            "start": 279,
            "end": 298
        },
        "year": 2011,
        "booktitle": "The Language Grid",
        "url": "db/series/cogtech/364221177.html#IshidaMTKS11",
        "authors": [
            "Toru Ishida",
            "Yohei Murakami",
            "Eri Tsunokawa",
            "Yoko Kubota",
            "Virach Sornlertlamvanich"
        ]
    },
    {
        "_id": "series/cogtech/FrankABNSZN06",
        "type": "Article",
        "title": "The Facial Expression Module.",
        "pages": {
            "start": 167,
            "end": 180
        },
        "year": 2006,
        "booktitle": "SmartKom",
        "url": "db/series/cogtech/54023732.html#FrankABNSZN06",
        "authors": [
            "Carmen Frank",
            "Johann Adelhardt",
            "Anton Batliner",
            "Elmar N?",
            "Rui Ping Shi",
            "Viktor Zei?ler",
            "Heinrich Niemann"
        ]
    },
    {
        "_id": "series/cogtech/ShiABFNZN06",
        "type": "Article",
        "title": "The Gesture Interpretation Module.",
        "pages": {
            "start": 209,
            "end": 219
        },
        "year": 2006,
        "booktitle": "SmartKom",
        "url": "db/series/cogtech/54023732.html#ShiABFNZN06",
        "authors": [
            "Rui Ping Shi",
            "Johann Adelhardt",
            "Anton Batliner",
            "Carmen Frank",
            "Elmar N?",
            "Viktor Zei?ler",
            "Heinrich Niemann"
        ]
    },
    {
        "_id": "series/cogtech/TanakaMI11",
        "type": "Article",
        "title": "Cascading Translation Services.",
        "pages": {
            "start": 103,
            "end": 117
        },
        "year": 2011,
        "booktitle": "The Language Grid",
        "url": "db/series/cogtech/364221177.html#TanakaMI11",
        "authors": [
            "Rie Tanaka",
            "Yohei Murakami",
            "Toru Ishida"
        ]
    },
    {
        "_id": "series/cogtech/Neidig13a",
        "type": "Article",
        "title": "Using Basic RFID-Based Digital Product Memories for Protection against Counterfeit Goods in Manufacturing Plants.",
        "pages": {
            "start": 305,
            "end": 310
        },
        "year": 2013,
        "booktitle": "SemProM",
        "url": "db/series/cogtech/364237376.html#Neidig13a",
        "authors": [
            "J?rg Neidig"
        ]
    },
    {
        "_id": "series/cogtech/AllbeckB04",
        "type": "Article",
        "title": "Representing and Parameterizing Agent Behaviors.",
        "pages": {
            "start": 19,
            "end": 38
        },
        "year": 2004,
        "booktitle": "Life-like characters",
        "url": "db/series/cogtech/354000867.html#AllbeckB04",
        "authors": [
            "Jan M. Allbeck",
            "Norman I. Badler"
        ]
    },
    {
        "_id": "series/cogtech/SchwartzSBW11",
        "type": "Article",
        "title": "Seamless Resource-Adaptive Navigation.",
        "pages": {
            "start": 239,
            "end": 265
        },
        "year": 2011,
        "booktitle": "Resource-Adaptive Cognitive Processes",
        "url": "db/series/cogtech/354089408.html#SchwartzSBW11",
        "authors": [
            "Tim Schwartz",
            "Christoph Stahl",
            "J?rg Baus",
            "Wolfgang Wahlster"
        ]
    },
    {
        "_id": "series/cogtech/Streit06",
        "type": "Article",
        "title": "Problematic, Indirect, Affective, and Other Nonstandard Input Processing.",
        "pages": {
            "start": 333,
            "end": 346
        },
        "year": 2006,
        "booktitle": "SmartKom",
        "url": "db/series/cogtech/54023732.html#Streit06",
        "authors": [
            "Michael Streit"
        ]
    },
    {
        "_id": "series/cogtech/PrendingerI04",
        "type": "Article",
        "title": "Introducing the Cast for Social Computing: Life-Like Characters.",
        "pages": {
            "start": 3,
            "end": 18
        },
        "year": 2004,
        "booktitle": "Life-like characters",
        "url": "db/series/cogtech/354000867.html#PrendingerI04",
        "authors": [
            "Helmut Prendinger",
            "Mitsuru Ishizuka"
        ]
    },
    {
        "_id": "series/cogtech/GarcezLG2009",
        "type": "Book",
        "title": "Neural-Symbolic Cognitive Reasoning",
        "url": "db/series/cogtech/index.html#GarcezLG2009",
        "series": "Cognitive Technologies",
        "publisher": "Springer",
        "year": 2009,
        "authors": [
            "Artur S. d'Avila Garcez",
            "Lu?s C. Lamb",
            "Dov M. Gabbay"
        ],
        "isbn": [
            "978-3-540-73245-7"
        ]
    },
    {
        "_id": "series/cogtech/AutexierBDS11",
        "type": "Article",
        "title": "?MEGA: Resource-Adaptive Processes in an Automated Reasoning System.",
        "pages": {
            "start": 389,
            "end": 423
        },
        "year": 2011,
        "booktitle": "Resource-Adaptive Cognitive Processes",
        "url": "db/series/cogtech/354089408.html#AutexierBDS11",
        "authors": [
            "Serge Autexier",
            "Christoph Benzm?",
            "Dominik Dietrich",
            "J?rg H. Siekmann"
        ]
    },
    {
        "_id": "series/cogtech/GabbayS11",
        "type": "Book",
        "title": "Conditionals and Modularity in General Logics",
        "year": 2011,
        "pages": {
            "start": 1,
            "end": 221
        },
        "publisher": "Springer",
        "series": "Cognitive Technologies",
        "url": "db/series/cogtech/index.html#GabbayS11",
        "authors": [
            "Dov M. Gabbay",
            "Karl Schlechta"
        ],
        "isbn": [
            "978-3-642-19067-4"
        ]
    },
    {
        "_id": "series/cogtech/WahlsterFGHJKSSW11",
        "type": "Article",
        "title": "The Shopping Experience of Tomorrow: Human-Centered and Resource-Adaptive.",
        "pages": {
            "start": 205,
            "end": 237
        },
        "year": 2011,
        "booktitle": "Resource-Adaptive Cognitive Processes",
        "url": "db/series/cogtech/354089408.html#WahlsterFGHJKSSW11",
        "authors": [
            "Wolfgang Wahlster",
            "Michael Feld",
            "Patrick Gebhard",
            "Dominikus Heckmann",
            "Ralf Jung",
            "Michael Kruppa",
            "Michael Schmitz",
            "L?bomira Spassova",
            "Rainer Wasinger"
        ]
    },
    {
        "_id": "series/cogtech/KahlMPGW13",
        "type": "Article",
        "title": "Enhancement of Consumer Support in Retail Scenarios by Utilization of Semantic Product Memories.",
        "pages": {
            "start": 329,
            "end": 347
        },
        "year": 2013,
        "booktitle": "SemProM",
        "url": "db/series/cogtech/364237376.html#KahlMPGW13",
        "authors": [
            "Gerrit Kahl",
            "Carsten Magerkurth",
            "J?rg Prei?inger",
            "Patrick Gebhard",
            "Benjamin Weyl"
        ]
    },
    {
        "_id": "series/cogtech/MurakamiLTNI11",
        "type": "Article",
        "title": "Service Grid Architecture.",
        "pages": {
            "start": 19,
            "end": 34
        },
        "year": 2011,
        "booktitle": "The Language Grid",
        "url": "db/series/cogtech/364221177.html#MurakamiLTNI11",
        "authors": [
            "Yohei Murakami",
            "Donghui Lin",
            "Masahiro Tanaka",
            "Takao Nakaguchi",
            "Toru Ishida"
        ]
    },
    {
        "_id": "series/cogtech/Zivny12",
        "type": "Book",
        "title": "The Complexity of Valued Constraint Satisfaction Problems",
        "year": 2012,
        "pages": {
            "start": 3,
            "end": 152
        },
        "publisher": "Springer",
        "series": "Cognitive Technologies",
        "url": "http: //dx.doi.org/10.1007/978-3-642-33974-5",
        "authors": [
            "Stanislav Zivny"
        ],
        "isbn": [
            "978-3-642-33973-8"
        ]
    },
    {
        "_id": "series/cogtech/YamashitaI11",
        "type": "Article",
        "title": "Conversational Grounding in Machine Translation Mediated Communication.",
        "pages": {
            "start": 183,
            "end": 198
        },
        "year": 2011,
        "booktitle": "The Language Grid",
        "url": "db/series/cogtech/364221177.html#YamashitaI11",
        "authors": [
            "Naomi Yamashita",
            "Toru Ishida"
        ]
    },
    {
        "_id": "series/cogtech/AdelhardtFNSZN06",
        "type": "Article",
        "title": "Multimodal Emogram, Data Collection and Presentation.",
        "pages": {
            "start": 597,
            "end": 602
        },
        "year": 2006,
        "booktitle": "SmartKom",
        "url": "db/series/cogtech/54023732.html#AdelhardtFNSZN06",
        "authors": [
            "Johann Adelhardt",
            "Carmen Frank",
            "Elmar N?",
            "Rui Ping Shi",
            "Viktor Zei?ler",
            "Heinrich Niemann"
        ]
    },
    {
        "_id": "series/cogtech/IshidaML11",
        "type": "Article",
        "title": "The Language Grid: Service-Oriented Approach to Sharing Language Resources.",
        "pages": {
            "start": 3,
            "end": 17
        },
        "year": 2011,
        "booktitle": "The Language Grid",
        "url": "db/series/cogtech/364221177.html#IshidaML11",
        "authors": [
            "Toru Ishida",
            "Yohei Murakami",
            "Donghui Lin"
        ]
    },
    {
        "_id": "series/cogtech/KawamotoSNNNIMYKLYKTHMYDUS04",
        "type": "Article",
        "title": "Galatea: Open-Source Software for Developing Anthropomorphic Spoken Dialog Agents.",
        "pages": {
            "start": 187,
            "end": 212
        },
        "year": 2004,
        "booktitle": "Life-like characters",
        "url": "db/series/cogtech/354000867.html#KawamotoSNNNIMYKLYKTHMYDUS04",
        "authors": [
            "Shinichi Kawamoto",
            "Hiroshi Shimodaira",
            "Tsuneo Nitta",
            "Takuya Nishimoto",
            "Satoshi Nakamura",
            "Katsunobu Itou",
            "Shigeo Morishima",
            "Tatsuo Yotsukura",
            "Atsuhiko Kai",
            "Akinobu Lee",
            "Yoichi Yamashita",
            "Takao Kobayashi",
            "Keiichi Tokuda",
            "Keikichi Hirose",
            "Nobuaki Minematsu",
            "Atsushi Yamada",
            "Yasuharu Den",
            "Takehito Utsuro",
            "Shigeki Sagayama"
        ]
    },
    {
        "_id": "series/cogtech/SteiningerSR06",
        "type": "Article",
        "title": "Annotation of Multimodal Data.",
        "pages": {
            "start": 571,
            "end": 596
        },
        "year": 2006,
        "booktitle": "SmartKom",
        "url": "db/series/cogtech/54023732.html#SteiningerSR06",
        "authors": [
            "Silke Steininger",
            "Florian Schiel",
            "Susen Rabold"
        ]
    },
    {
        "_id": "series/cogtech/Kitamura04",
        "type": "Article",
        "title": "Web Information Integration Using Multiple Character Agents.",
        "pages": {
            "start": 295,
            "end": 316
        },
        "year": 2004,
        "booktitle": "Life-like characters",
        "url": "db/series/cogtech/354000867.html#Kitamura04",
        "authors": [
            "Yasuhiko Kitamura"
        ]
    },
    {
        "_id": "series/cogtech/CordG08",
        "type": "Article",
        "title": "Online Content-Based Image Retrieval Using Active Learning.",
        "pages": {
            "start": 115,
            "end": 138
        },
        "year": 2008,
        "booktitle": "Machine Learning Techniques for Multimedia",
        "url": "db/series/cogtech/354075170.html#CordG08",
        "authors": [
            "Matthieu Cord",
            "Philippe Henri Gosselin"
        ]
    },
    {
        "_id": "series/cogtech/KollerTP11",
        "type": "Article",
        "title": "Scope Underspecification with Tree Descriptions: Theory and Practice.",
        "pages": {
            "start": 337,
            "end": 364
        },
        "year": 2011,
        "booktitle": "Resource-Adaptive Cognitive Processes",
        "url": "db/series/cogtech/354089408.html#KollerTP11",
        "authors": [
            "Alexander Koller",
            "Stefan Thater",
            "Manfred Pinkal"
        ]
    },
    {
        "_id": "series/cogtech/HornSPH13",
        "type": "Article",
        "title": "Distributed Digital Product Memories.",
        "pages": {
            "start": 205,
            "end": 219
        },
        "year": 2013,
        "booktitle": "SemProM",
        "url": "db/series/cogtech/364237376.html#HornSPH13",
        "authors": [
            "Sven Horn",
            "Barbara Schennerlein",
            "Anne Pf?rtner",
            "Thorbj?rn Hansen"
        ]
    },
    {
        "_id": "series/cogtech/ChoP13",
        "type": "Article",
        "title": "Capturing Sensor Data in the SemProM Automotive Scenario.",
        "pages": {
            "start": 107,
            "end": 123
        },
        "year": 2013,
        "booktitle": "SemProM",
        "url": "db/series/cogtech/364237376.html#ChoP13",
        "authors": [
            "Young-Jae Cho",
            "J?rg Prei?inger"
        ]
    },
    {
        "_id": "series/cogtech/PennachinG07",
        "type": "Article",
        "title": "Contemporary Approaches to Artificial General Intelligence.",
        "pages": {
            "start": 1,
            "end": 30
        },
        "year": 2007,
        "booktitle": "Artificial General Intelligence",
        "url": "db/series/cogtech/354023733.html#PennachinG07",
        "authors": [
            "Cassio Pennachin",
            "Ben Goertzel"
        ]
    },
    {
        "_id": "series/cogtech/FerdinandWMK11",
        "type": "Article",
        "title": "Error-Induced Learning as a Resource-Adaptive Process in Young and Elderly Individuals.",
        "pages": {
            "start": 55,
            "end": 76
        },
        "year": 2011,
        "booktitle": "Resource-Adaptive Cognitive Processes",
        "url": "db/series/cogtech/354089408.html#FerdinandWMK11",
        "authors": [
            "Nicola K. Ferdinand",
            "Anja Weiten",
            "Axel Mecklinger",
            "Jutta Kray"
        ]
    },
    {
        "_id": "series/cogtech/CarolisPPS04",
        "type": "Article",
        "title": "APML, a Markup Language for Believable Behavior Generation.",
        "pages": {
            "start": 65,
            "end": 86
        },
        "year": 2004,
        "booktitle": "Life-like characters",
        "url": "db/series/cogtech/354000867.html#CarolisPPS04",
        "authors": [
            "Berardina De Carolis",
            "Catherine Pelachaud",
            "Isabella Poggi",
            "Mark Steedman"
        ]
    },
    {
        "_id": "series/cogtech/He12",
        "type": "Book",
        "title": "Analysis of Rare Categories",
        "year": 2012,
        "pages": {
            "start": 1,
            "end": 128
        },
        "publisher": "Springer",
        "series": "Cognitive Technologies",
        "url": "http: //dx.doi.org/10.1007/978-3-642-22813-1",
        "authors": [
            "Jingrui He"
        ],
        "isbn": [
            "978-3-642-22812-4"
        ]
    },
    {
        "_id": "series/cogtech/354000867",
        "type": "Book",
        "editor": "Helmut Prendinger",
        "editor": "Mitsuru Ishizuka",
        "title": "Life-like characters - tools, affective functions, and applications.",
        "publisher": "Springer",
        "year": 2004,
        "series": "Cognitive Technologies",
        "booktitle": "Life-like characters",
        "url": "db/series/cogtech/354000867.html",
        "authors": [],
        "isbn": [
            "978-3-540-00867-5"
        ]
    },
    {
        "_id": "series/cogtech/MateasS04",
        "type": "Article",
        "title": "A Behavior Language: Joint Action and Behavioral Idioms.",
        "pages": {
            "start": 135,
            "end": 162
        },
        "year": 2004,
        "booktitle": "Life-like characters",
        "url": "db/series/cogtech/354000867.html#MateasS04",
        "authors": [
            "Michael Mateas",
            "Andrew Stern"
        ]
    },
    {
        "_id": "series/cogtech/Garis07",
        "type": "Article",
        "title": "Artificial Brains.",
        "pages": {
            "start": 159,
            "end": 174
        },
        "year": 2007,
        "booktitle": "Artificial General Intelligence",
        "url": "db/series/cogtech/354023733.html#Garis07",
        "authors": [
            "Hugo de Garis"
        ]
    },
    {
        "_id": "series/cogtech/GreeneCM08",
        "type": "Article",
        "title": "Unsupervised Learning and Clustering.",
        "pages": {
            "start": 51,
            "end": 90
        },
        "year": 2008,
        "booktitle": "Machine Learning Techniques for Multimedia",
        "url": "db/series/cogtech/354075170.html#GreeneCM08",
        "authors": [
            "Derek Greene",
            "P?draig Cunningham",
            "Rudolf Mayer"
        ]
    },
    {
        "_id": "series/cogtech/KurdyukovaAL12",
        "type": "Article",
        "title": "Trust Management of Ubiquitous Multi-Display Environments.",
        "pages": {
            "start": 177,
            "end": 193
        },
        "year": 2012,
        "booktitle": "Ubiquitous Display Environments",
        "url": "db/series/cogtech/364227662.html#KurdyukovaAL12",
        "authors": [
            "Ekaterina Kurdyukova",
            "Elisabeth Andr?",
            "Karin Leichtenstern"
        ]
    },
    {
        "_id": "series/cogtech/PollerT06",
        "type": "Article",
        "title": "Multimodal Fission and Media Design.",
        "pages": {
            "start": 379,
            "end": 400
        },
        "year": 2006,
        "booktitle": "SmartKom",
        "url": "db/series/cogtech/54023732.html#PollerT06",
        "authors": [
            "Peter Poller",
            "Valentin Tschernomas"
        ]
    },
    {
        "_id": "series/cogtech/PorzelGM06",
        "type": "Article",
        "title": "In Context: Integrating Domain- and Situation-Specific Knowledge.",
        "pages": {
            "start": 269,
            "end": 284
        },
        "year": 2006,
        "booktitle": "SmartKom",
        "url": "db/series/cogtech/54023732.html#PorzelGM06",
        "authors": [
            "Robert Porzel",
            "Iryna Gurevych",
            "Rainer Malaka"
        ]
    },
    {
        "_id": "series/cogtech/Voss07",
        "type": "Article",
        "title": "Essentials of General Intelligence: The Direct Path to Artificial General Intelligence.",
        "pages": {
            "start": 131,
            "end": 157
        },
        "year": 2007,
        "booktitle": "Artificial General Intelligence",
        "url": "db/series/cogtech/354023733.html#Voss07",
        "authors": [
            "Peter Voss"
        ]
    },
    {
        "_id": "series/cogtech/SchielT06",
        "type": "Article",
        "title": "Wizard-of-Oz Recordings.",
        "pages": {
            "start": 541,
            "end": 570
        },
        "year": 2006,
        "booktitle": "SmartKom",
        "url": "db/series/cogtech/54023732.html#SchielT06",
        "authors": [
            "Florian Schiel",
            "Ulli T?"
        ]
    },
    {
        "_id": "series/cogtech/TanakaINS11",
        "type": "Article",
        "title": "Intercultural Collaboration Tools Based on the Language Grid.",
        "pages": {
            "start": 35,
            "end": 49
        },
        "year": 2011,
        "booktitle": "The Language Grid",
        "url": "db/series/cogtech/364221177.html#TanakaINS11",
        "authors": [
            "Masahiro Tanaka",
            "Rieko Inaba",
            "Akiyo Nadamoto",
            "Tomohiro Shigenobu"
        ]
    },
    {
        "_id": "series/cogtech/PrendingerSI04",
        "type": "Article",
        "title": "MPML and SCREAM: Scripting the Bodies and Minds of Life-Like Characters.",
        "pages": {
            "start": 213,
            "end": 244
        },
        "year": 2004,
        "booktitle": "Life-like characters",
        "url": "db/series/cogtech/354000867.html#PrendingerSI04",
        "authors": [
            "Helmut Prendinger",
            "Santi Saeyor",
            "Mitsuru Ishizuka"
        ]
    },
    {
        "_id": "series/cogtech/OertzenGL11",
        "type": "Article",
        "title": "Simulating Statistical Power in Latent Growth Curve Modeling: A Strategy for Evaluating Age-Based Changes in Cognitive Resources.",
        "pages": {
            "start": 95,
            "end": 117
        },
        "year": 2011,
        "booktitle": "Resource-Adaptive Cognitive Processes",
        "url": "db/series/cogtech/354089408.html#OertzenGL11",
        "authors": [
            "Timo von Oertzen",
            "Paolo Ghisletta",
            "Ulman Lindenberger"
        ]
    },
    {
        "_id": "series/cogtech/Schmidhuber07a",
        "type": "Article",
        "title": "G?del Machines: Fully Self-referential Optimal Universal Self-improvers.",
        "pages": {
            "start": 199,
            "end": 226
        },
        "year": 2007,
        "booktitle": "Artificial General Intelligence",
        "url": "db/series/cogtech/354023733.html#Schmidhuber07a",
        "authors": [
            "J?rgen Schmidhuber"
        ]
    },
    {
        "_id": "series/cogtech/JohnR12",
        "type": "Article",
        "title": "xioScreen: Experiences Gained from Building a Series of Prototypes of Interactive Public Displays.",
        "pages": {
            "start": 125,
            "end": 142
        },
        "year": 2012,
        "booktitle": "Ubiquitous Display Environments",
        "url": "db/series/cogtech/364227662.html#JohnR12",
        "authors": [
            "K. P. Ludwig John",
            "Thomas Rist"
        ]
    },
    {
        "_id": "series/cogtech/DaiberKSM12",
        "type": "Article",
        "title": "Context-Sensitive Display Environments.",
        "pages": {
            "start": 31,
            "end": 51
        },
        "year": 2012,
        "booktitle": "Ubiquitous Display Environments",
        "url": "db/series/cogtech/364227662.html#DaiberKSM12",
        "authors": [
            "Florian Daiber",
            "Antonio Kr?",
            "Johannes Sch?ning",
            "J?rg M?"
        ]
    },
    {
        "_id": "series/cogtech/Haupert013",
        "type": "Article",
        "title": "The Object Memory Server for Semantic Product Memories.",
        "pages": {
            "start": 175,
            "end": 189
        },
        "year": 2013,
        "booktitle": "SemProM",
        "url": "db/series/cogtech/364237376.html#Haupert013",
        "authors": [
            "Jens Haupert",
            "Michael Schneider 0003"
        ]
    },
    {
        "_id": "series/cogtech/StreitBP06",
        "type": "Article",
        "title": "Emotion Analysis and Emotion-Handling Subdialogues.",
        "pages": {
            "start": 317,
            "end": 332
        },
        "year": 2006,
        "booktitle": "SmartKom",
        "url": "db/series/cogtech/54023732.html#StreitBP06",
        "authors": [
            "Michael Streit",
            "Anton Batliner",
            "Thomas Portele"
        ]
    },
    {
        "_id": "series/cogtech/HautasaariTNKMI11",
        "type": "Article",
        "title": "Multi-Language Discussion Platform for Wikipedia Translation.",
        "pages": {
            "start": 231,
            "end": 244
        },
        "year": 2011,
        "booktitle": "The Language Grid",
        "url": "db/series/cogtech/364221177.html#HautasaariTNKMI11",
        "authors": [
            "Ari Hautasaari",
            "Toshiyuki Takasaki",
            "Takao Nakaguchi",
            "Jun Koyama",
            "Yohei Murakami",
            "Toru Ishida"
        ]
    },
    {
        "_id": "series/cogtech/Blocher13",
        "type": "Article",
        "title": "SemProM - Dissemination and Impact.",
        "pages": {
            "start": 23,
            "end": 37
        },
        "year": 2013,
        "booktitle": "SemProM",
        "url": "db/series/cogtech/364237376.html#Blocher13",
        "authors": [
            "Anselm Blocher"
        ]
    },
    {
        "_id": "series/cogtech/ArafaKM04",
        "type": "Article",
        "title": "Toward a Unified Scripting Language: Lessons Learned from Developing CML and AML.",
        "pages": {
            "start": 39,
            "end": 64
        },
        "year": 2004,
        "booktitle": "Life-like characters",
        "url": "db/series/cogtech/354000867.html#ArafaKM04",
        "authors": [
            "Yasmine Arafa",
            "Kaveh Kamyab",
            "Ebrahim Mamdani"
        ]
    },
    {
        "_id": "series/cogtech/YoshinoI11",
        "type": "Article",
        "title": "Language-Barrier-Free Room for Second Life.",
        "pages": {
            "start": 167,
            "end": 182
        },
        "year": 2011,
        "booktitle": "The Language Grid",
        "url": "db/series/cogtech/364221177.html#YoshinoI11",
        "authors": [
            "Takashi Yoshino",
            "Katsuya Ikenobu"
        ]
    },
    {
        "_id": "series/cogtech/TorgeH06",
        "type": "Article",
        "title": "Realizing Complex User Wishes with a Function Planning Module.",
        "pages": {
            "start": 349,
            "end": 362
        },
        "year": 2006,
        "booktitle": "SmartKom",
        "url": "db/series/cogtech/54023732.html#TorgeH06",
        "authors": [
            "Sunna Torge",
            "Christian Hying"
        ]
    },
    {
        "_id": "series/cogtech/EmeleVLG06",
        "type": "Article",
        "title": "Class-Based Language Model Adaptation.",
        "pages": {
            "start": 109,
            "end": 121
        },
        "year": 2006,
        "booktitle": "SmartKom",
        "url": "db/series/cogtech/54023732.html#EmeleVLG06",
        "authors": [
            "Martin C. Emele",
            "Zica Valsan",
            "Yin Lam",
            "Silke Goronzy"
        ]
    },
    {
        "_id": "series/cogtech/DuyguluBO08",
        "type": "Article",
        "title": "Combining Textual and Visual Information for Semantic Labeling of Images and Videos.",
        "pages": {
            "start": 205,
            "end": 225
        },
        "year": 2008,
        "booktitle": "Machine Learning Techniques for Multimedia",
        "url": "db/series/cogtech/354075170.html#DuyguluBO08",
        "authors": [
            "Pinar Duygulu",
            "Muhammet Bastan",
            "Derya Ozkan"
        ]
    },
    {
        "_id": "series/cogtech/Hutter07",
        "type": "Article",
        "title": "Universal Algorithmic Intelligence: A Mathematical Top?Down Approach.",
        "pages": {
            "start": 227,
            "end": 290
        },
        "year": 2007,
        "booktitle": "Artificial General Intelligence",
        "url": "db/series/cogtech/354023733.html#Hutter07",
        "authors": [
            "Marcus Hutter"
        ]
    },
    {
        "_id": "series/cogtech/Yudkowsky07",
        "type": "Article",
        "title": "Levels of Organization in General Intelligence.",
        "pages": {
            "start": 389,
            "end": 501
        },
        "year": 2007,
        "booktitle": "Artificial General Intelligence",
        "url": "db/series/cogtech/354023733.html#Yudkowsky07",
        "authors": [
            "Eliezer Yudkowsky"
        ]
    },
    {
        "_id": "series/cogtech/SiekmannC11",
        "type": "Article",
        "title": "Resource-Adaptive Cognitive Processes.",
        "pages": {
            "start": 1,
            "end": 10
        },
        "year": 2011,
        "booktitle": "Resource-Adaptive Cognitive Processes",
        "url": "db/series/cogtech/354089408.html#SiekmannC11",
        "authors": [
            "J?rg H. Siekmann",
            "Matthew W. Crocker"
        ]
    },
    {
        "_id": "series/cogtech/Rist04",
        "type": "Article",
        "title": "Some Issues in the Design of Character Scripting and Specification Languages - a Personal View.",
        "pages": {
            "start": 463,
            "end": 468
        },
        "year": 2004,
        "booktitle": "Life-like characters",
        "url": "db/series/cogtech/354000867.html#Rist04",
        "authors": [
            "Thomas Rist"
        ]
    },
    {
        "_id": "series/cogtech/GurevychPM06",
        "type": "Article",
        "title": "Modeling Domain Knowledge: Know-How and Know-What.",
        "pages": {
            "start": 71,
            "end": 84
        },
        "year": 2006,
        "booktitle": "SmartKom",
        "url": "db/series/cogtech/54023732.html#GurevychPM06",
        "authors": [
            "Iryna Gurevych",
            "Robert Porzel",
            "Rainer Malaka"
        ]
    },
    {
        "_id": "series/cogtech/Lockelt06",
        "type": "Article",
        "title": "Plan-Based Dialogue Management for Multiple Cooperating Applications.",
        "pages": {
            "start": 301,
            "end": 316
        },
        "year": 2006,
        "booktitle": "SmartKom",
        "url": "db/series/cogtech/54023732.html#Lockelt06",
        "authors": [
            "Markus L?ckelt"
        ]
    },
    {
        "_id": "series/cogtech/HassineMI11",
        "type": "Article",
        "title": "Horizontal Service Composition for Language Services.",
        "pages": {
            "start": 53,
            "end": 67
        },
        "year": 2011,
        "booktitle": "The Language Grid",
        "url": "db/series/cogtech/364221177.html#HassineMI11",
        "authors": [
            "Ahlem Ben Hassine",
            "Shigeo Matsubara",
            "Toru Ishida"
        ]
    },
    {
        "_id": "series/cogtech/Redko07",
        "type": "Article",
        "title": "The Natural Way to Artificial Intelligence.",
        "pages": {
            "start": 327,
            "end": 351
        },
        "year": 2007,
        "booktitle": "Artificial General Intelligence",
        "url": "db/series/cogtech/354023733.html#Redko07",
        "authors": [
            "Vladimir G. Red'ko"
        ]
    },
    {
        "_id": "series/cogtech/Becker06",
        "type": "Article",
        "title": "Natural Language Generation with Fully Specified Templates.",
        "pages": {
            "start": 401,
            "end": 410
        },
        "year": 2006,
        "booktitle": "SmartKom",
        "url": "db/series/cogtech/54023732.html#Becker06",
        "authors": [
            "Tilman Becker"
        ]
    },
    {
        "_id": "series/cogtech/EngelP06",
        "type": "Article",
        "title": "Modality Fusion.",
        "pages": {
            "start": 223,
            "end": 235
        },
        "year": 2006,
        "booktitle": "SmartKom",
        "url": "db/series/cogtech/54023732.html#EngelP06",
        "authors": [
            "Ralf Engel",
            "Norbert Pfleger"
        ]
    },
    {
        "_id": "series/cogtech/DenoyerG08",
        "type": "Article",
        "title": "Machine Learning for Semi-structured Multimedia Documents: Application to Pornographic Filtering and Thematic Categorization.",
        "pages": {
            "start": 227,
            "end": 247
        },
        "year": 2008,
        "booktitle": "Machine Learning Techniques for Multimedia",
        "url": "db/series/cogtech/354075170.html#DenoyerG08",
        "authors": [
            "Ludovic Denoyer",
            "Patrick Gallinari"
        ]
    },
    {
        "_id": "series/music/MazzolaC09",
        "type": "Book",
        "title": "Flow, Gesture, and Spaces in Free Jazz - Towards a Theory of Collaboration",
        "year": 2009,
        "pages": "i",
        "publisher": "Springer",
        "series": "Computational Music Science",
        "url": "http: //dx.doi.org/10.1007/978-3-540-92195-0",
        "authors": [
            "Guerino Mazzola",
            "Paul B. Cherlin"
        ],
        "isbn": [
            "978-3-540-92194-3",
            "978-3-540-92195-0"
        ]
    },
    {
        "_id": "series/music/Mazzola11",
        "type": "Book",
        "title": "Musical Performance - A Comprehensive Approach: Theory, Analytical Tools, and Case Studies",
        "year": 2011,
        "pages": "i",
        "publisher": "Springer",
        "series": "Computational Music Science",
        "url": "http: //dx.doi.org/10.1007/978-3-642-11838-8",
        "authors": [
            "Guerino Mazzola"
        ],
        "isbn": [
            "978-3-642-11837-1",
            "978-3-642-11838-8"
        ]
    },
    {
        "_id": "series/music/Agmon13",
        "type": "Book",
        "title": "The Languages of Western Tonality",
        "year": 2013,
        "pages": "i",
        "publisher": "Springer",
        "series": "Computational Music Science",
        "url": "http: //dx.doi.org/10.1007/978-3-642-39587-1",
        "authors": [
            "Eytan Agmon"
        ],
        "isbn": [
            "978-3-642-39586-4",
            "978-3-642-39587-1"
        ]
    },
    {
        "_id": "series/music/Milmeister09",
        "type": "Book",
        "title": "The Rubato Composer Music Software - Component-Based Implementation of a Functorial Concept Architecture",
        "year": 2009,
        "pages": {
            "start": 1,
            "end": 293
        },
        "publisher": "Springer",
        "series": "Computational Music Science",
        "url": "http: //dx.doi.org/10.1007/978-3-642-00148-2",
        "authors": [
            "G?rard Milmeister"
        ],
        "isbn": [
            "978-3-642-00147-5",
            "978-3-642-00148-2"
        ]
    },
    {
        "_id": "series/cscw/BratteteigW14",
        "type": "Book",
        "title": "Disentangling Participation - Power and Decision-making in Participatory Design",
        "year": 2014,
        "pages": {
            "start": 1,
            "end": 118
        },
        "publisher": "Springer",
        "series": "Computer Supported Cooperative Work",
        "authors": [
            "Tone Bratteteig",
            "Ina Wagner"
        ],
        "isbn": [
            "978-3-319-06162-7",
            "978-3-319-06163-4"
        ]
    },
    {
        "_id": "series/class/HeiserD13",
        "type": "Article",
        "title": "Clustering and Prediction of Rankings Within a Kemeny Distance Framework.",
        "pages": {
            "start": 19,
            "end": 31
        },
        "year": 2013,
        "booktitle": "Algorithms from and for Nature and Life",
        "url": "db/series/class/class331900034.html#HeiserD13",
        "authors": [
            "Willem J. Heiser",
            "Antonio D'Ambrosio"
        ]
    },
    {
        "_id": "series/class/FontanellaFI13",
        "type": "Article",
        "title": "Supervised Classification of Facial Expressions.",
        "pages": {
            "start": 123,
            "end": 130
        },
        "year": 2013,
        "booktitle": "Statistical Models for Data Analysis",
        "url": "db/series/class/class331900031.html#FontanellaFI13",
        "authors": [
            "S. Fontanella",
            "C. Fusilli",
            "Luigi Ippoliti"
        ]
    },
    {
        "_id": "series/class/CapotortiV13",
        "type": "Article",
        "title": "Correction of Incoherences in Statistical Matching.",
        "pages": {
            "start": 73,
            "end": 80
        },
        "year": 2013,
        "booktitle": "Statistical Models for Data Analysis",
        "url": "db/series/class/class331900031.html#CapotortiV13",
        "authors": [
            "Andrea Capotorti",
            "Barbara Vantaggi"
        ]
    },
    {
        "_id": "series/class/KampkeR05",
        "type": "Article",
        "title": "Equity Analysis by Functional Approach.",
        "pages": {
            "start": 241,
            "end": 248
        },
        "year": 2005,
        "booktitle": "Data Analysis and Decision Support",
        "url": "db/series/class/class354028397.html#KampkeR05",
        "authors": [
            "Thomas K?mpke",
            "Franz Josef Radermacher"
        ]
    },
    {
        "_id": "series/class/SchoierM13",
        "type": "Article",
        "title": "Importance Sampling: A Variance Reduction Method for Credit Risk Models.",
        "pages": {
            "start": 333,
            "end": 342
        },
        "year": 2013,
        "booktitle": "Statistical Models for Data Analysis",
        "url": "db/series/class/class331900031.html#SchoierM13",
        "authors": [
            "Gabriella Schoier",
            "Federico Marsich"
        ]
    },
    {
        "_id": "series/class/DAgataT13",
        "type": "Article",
        "title": "Classifying Tourism Destinations: An Application of Network Analysis.",
        "pages": {
            "start": 99,
            "end": 106
        },
        "year": 2013,
        "booktitle": "Statistical Models for Data Analysis",
        "url": "db/series/class/class331900031.html#DAgataT13",
        "authors": [
            "Rosario D'Agata",
            "Venera Tomaselli"
        ]
    },
    {
        "_id": "series/class/GaulK13",
        "type": "Article",
        "title": "A Hierarchical Clustering Approach to Modularity Maximization.",
        "pages": {
            "start": 79,
            "end": 86
        },
        "year": 2013,
        "booktitle": "Algorithms from and for Nature and Life",
        "url": "db/series/class/class331900034.html#GaulK13",
        "authors": [
            "Wolfgang Gaul",
            "Rebecca Klages"
        ]
    },
    {
        "_id": "series/class/LorenziniC13",
        "type": "Article",
        "title": "Measuring the Success Factors of a Website: Statistical Methods and an Application to a 'Web District'.",
        "pages": {
            "start": 201,
            "end": 208
        },
        "year": 2013,
        "booktitle": "Statistical Models for Data Analysis",
        "url": "db/series/class/class331900031.html#LorenziniC13",
        "authors": [
            "Eleonora Lorenzini",
            "Paola Cerchiello"
        ]
    },
    {
        "_id": "series/class/SchwaigerR05",
        "type": "Article",
        "title": "On the Performance of Algorithms for Two-Mode Hierarchical Cluster Analysis - Results from a Monte Carlo Simulation Study.",
        "pages": {
            "start": 141,
            "end": 148
        },
        "year": 2005,
        "booktitle": "Data Analysis and Decision Support",
        "url": "db/series/class/class354028397.html#SchwaigerR05",
        "authors": [
            "Manfred Schwaiger",
            "Raimund Rix"
        ]
    },
    {
        "_id": "series/class/Manisera13",
        "type": "Article",
        "title": "Assessing Stability in NonLinear PCA with Hierarchical Data.",
        "pages": {
            "start": 217,
            "end": 224
        },
        "year": 2013,
        "booktitle": "Statistical Models for Data Analysis",
        "url": "db/series/class/class331900031.html#Manisera13",
        "authors": [
            "Marica Manisera"
        ]
    },
    {
        "_id": "series/class/Bagnato13",
        "type": "Article",
        "title": "Model-Based Classification Via Patterned Covariance Analysis.",
        "pages": {
            "start": 17,
            "end": 26
        },
        "year": 2013,
        "booktitle": "Statistical Models for Data Analysis",
        "url": "db/series/class/class331900031.html#Bagnato13",
        "authors": [
            "Luca Bagnato"
        ]
    },
    {
        "_id": "series/class/BonniniSS13",
        "type": "Article",
        "title": "Nonparametric Multivariate Inference Via Permutation Tests for CUB Models.",
        "pages": {
            "start": 45,
            "end": 53
        },
        "year": 2013,
        "booktitle": "Statistical Models for Data Analysis",
        "url": "db/series/class/class331900031.html#BonniniSS13",
        "authors": [
            "Stefano Bonnini",
            "Luigi Salmaso",
            "Francesca Solmi"
        ]
    },
    {
        "_id": "series/class/331900031",
        "type": "Book",
        "editor": "Paolo Giudici",
        "editor": "Salvatore Ingrassia",
        "editor": "Maurizio Vichi",
        "title": "Statistical Models for Data Analysis",
        "year": 2013,
        "publisher": "Springer",
        "series": "Studies in Classification, Data Analysis, and Knowledge Organization",
        "url": "db/series/class/class331900031.html",
        "authors": [],
        "isbn": [
            "978-3-319-00031-2"
        ]
    },
    {
        "_id": "series/class/TsoS06",
        "type": "Article",
        "title": "Empirical Analysis of Attribute-Aware Recommendation Algorithms with Variable Synthetic Data.",
        "pages": {
            "start": 271,
            "end": 278
        },
        "year": 2006,
        "booktitle": "Data Science and Classification",
        "url": "db/series/class/class354034415.html#TsoS06",
        "authors": [
            "Karen H. L. Tso",
            "Lars Schmidt-Thieme"
        ]
    },
    {
        "_id": "series/class/ChudyD13",
        "type": "Article",
        "title": "Recognising Cello Performers Using Timbre Models.",
        "pages": {
            "start": 511,
            "end": 518
        },
        "year": 2013,
        "booktitle": "Algorithms from and for Nature and Life",
        "url": "db/series/class/class331900034.html#ChudyD13",
        "authors": [
            "Magdalena Chudy",
            "Simon Dixon"
        ]
    },
    {
        "_id": "series/class/BalzanellaLV13",
        "type": "Article",
        "title": "Clustering Data Streams by On-Line Proximity Updating.",
        "pages": {
            "start": 97,
            "end": 104
        },
        "year": 2013,
        "booktitle": "Classification and Data Mining",
        "url": "db/series/class/class364228893.html#BalzanellaLV13",
        "authors": [
            "Antonio Balzanella",
            "Yves Lechevallier",
            "Rosanna Verde"
        ]
    },
    {
        "_id": "series/class/Imaizumi05",
        "type": "Article",
        "title": "An Unfolding Scaling Model for Aggregated Preferential Choice Data.",
        "pages": {
            "start": 65,
            "end": 72
        },
        "year": 2005,
        "booktitle": "Data Analysis and Decision Support",
        "url": "db/series/class/class354028397.html#Imaizumi05",
        "authors": [
            "Tadashi Imaizumi"
        ]
    },
    {
        "_id": "series/class/FriedrichsW13",
        "type": "Article",
        "title": "Auralization of Auditory Models.",
        "pages": {
            "start": 225,
            "end": 232
        },
        "year": 2013,
        "booktitle": "Classification and Data Mining",
        "url": "db/series/class/class364228893.html#FriedrichsW13",
        "authors": [
            "Klaus Friedrichs",
            "Claus Weihs"
        ]
    },
    {
        "_id": "series/class/IezziMS13",
        "type": "Article",
        "title": "A New Fuzzy Method to Classify Professional Profiles from Job Announcements.",
        "pages": {
            "start": 151,
            "end": 159
        },
        "year": 2013,
        "booktitle": "Statistical Models for Data Analysis",
        "url": "db/series/class/class331900031.html#IezziMS13",
        "authors": [
            "Domenica Fioredistella Iezzi",
            "Mario Mastrangelo",
            "Scipione Sarlo"
        ]
    },
    {
        "_id": "series/class/Krolak-Schwerdt05",
        "type": "Article",
        "title": "Three-Way Multidimensional Scaling: Formal Properties and Relationships Between Scaling Methods.",
        "pages": {
            "start": 82,
            "end": 90
        },
        "year": 2005,
        "booktitle": "Data Analysis and Decision Support",
        "url": "db/series/class/class354028397.html#Krolak-Schwerdt05",
        "authors": [
            "Sabine Krolak-Schwerdt"
        ]
    },
    {
        "_id": "series/class/Doreian06",
        "type": "Article",
        "title": "Some Open Problem Sets for Generalized Blockmodeling.",
        "pages": {
            "start": 119,
            "end": 130
        },
        "year": 2006,
        "booktitle": "Data Science and Classification",
        "url": "db/series/class/class354034415.html#Doreian06",
        "authors": [
            "Patrick Doreian"
        ]
    },
    {
        "_id": "series/class/AcunaP06",
        "type": "Article",
        "title": "Improving the Performance of Principal Components for Classification of Gene Expression Data Through Feature Selection.",
        "pages": {
            "start": 325,
            "end": 332
        },
        "year": 2006,
        "booktitle": "Data Science and Classification",
        "url": "db/series/class/class354034415.html#AcunaP06",
        "authors": [
            "Edgar Acu?",
            "Jaime Porras"
        ]
    },
    {
        "_id": "series/class/RomanoS13",
        "type": "Article",
        "title": "Energy Consumption - Gross Domestic Product Causal Relationship in the Italian Regions.",
        "pages": {
            "start": 279,
            "end": 286
        },
        "year": 2013,
        "booktitle": "Classification and Data Mining",
        "url": "db/series/class/class364228893.html#RomanoS13",
        "authors": [
            "Antonio Angelo Romano",
            "Giuseppe Scandurra"
        ]
    },
    {
        "_id": "series/class/LagonaP13",
        "type": "Article",
        "title": "A Gaussian-Von Mises Hidden Markov Model for Clustering Multivariate Linear-Circular Data.",
        "pages": {
            "start": 171,
            "end": 179
        },
        "year": 2013,
        "booktitle": "Statistical Models for Data Analysis",
        "url": "db/series/class/class331900031.html#LagonaP13",
        "authors": [
            "Francesco Lagona",
            "Marco Picone"
        ]
    },
]